	(1)
VARIABLES	SA
	
post_entry	0.0013
	(0.0163)
	
Observations	.
Observations	134605
Number contractors	20853
Connected contractors	1023
Mean before connection	0.258
Standard errors in parentheses	
*** p<0.01, ** p<0.05, * p<0.1	
